…
It is interesting that the player_count distribution was conserved
across review category, where OnlySingle is the most frequent type of
game. Followed by Both, OnlyMulti and NoInfo. The conservation of this
ranking suggest that there is not a relationship between the number of
players and the total number of reviews. To complement this observation,
I used the categorical grading given by Steam

``` r
steam_games_reduced %>%
  group_by(categorical, player_count) %>%
  summarise(number_games = n())
```

    ## # A tibble: 34 × 3
    ## # Groups:   categorical [9]
    ##    categorical             player_count number_games
    ##    <fct>                   <fct>               <int>
    ##  1 Positive                NoInfo                106
    ##  2 Positive                OnlySingle           2754
    ##  3 Positive                OnlyMulti              62
    ##  4 Positive                Both                  569
    ##  5 Overwhelmingly Positive NoInfo                  5
    ##  6 Overwhelmingly Positive OnlySingle            268
    ##  7 Overwhelmingly Positive OnlyMulti               3
    ##  8 Overwhelmingly Positive Both                   41
    ##  9 Mostly Positive         NoInfo                 80
    ## 10 Mostly Positive         OnlySingle           2331
    ## # … with 24 more rows
…
